-ipap11helper==0.1
Babel==1.3
BeautifulSoup==3.2.1
CherryPy==3.2.2
Genshi==0.7
IPy==0.81
Jinja2==2.7.3
M2Crypto==0.21.1
MarkupSafe==0.23
Pillow==2.6.1
PyGithub==1.25.2
PyPAM==0.5.0
PyXB==1.2.3
PyYAML==3.11
Pygments==2.0.2
SSSDConfig==1.12.4
Sphinx==1.3.1
alabaster==0.7.6
## FIXME: could not find svn URL in dependency_links for this package:
apsw==3.8.4.3-r1
backports.ssl-match-hostname==3.4.0.2
blivet==0.61.15
chardet==2.2.1
coverage==3.7
cssselect==0.9.1
cssutils==0.9.9
decorator==3.4.0
devassistant==0.9.3
di==0.3
dnspython==1.11.1
docutils==0.12
empy==3.3.2
feedparser==5.1.3
freeipa==2.0.0.alpha.0
fros==1.0
funcsigs==0.4
futures==2.1.6
glusterfs-api==3.5.3
humanize==0.5
iniparse==0.4
initial-setup==0.3.25
ipaplatform==4.1.4
ipapython==4.1.4
javapackages==4.1.0
kerberos==1.1
kitchen==1.1.1
langtable==0.0.29
lxml==3.3.6
matplotlib==1.4.3
mechanize==0.2.5
mock==1.1.1
netaddr==0.7.12
netifaces==0.5
nose==1.3.7
ntplib==0.3.2
numpy==1.9.2
odfpy==0.9.6
openlmi==0.6.0
openlmi-storage==0.8.1
pbr==1.2.0
pexpect==3.1
policycoreutils-default-encoding==0.1
progress==1.2
pwquality==1.2.4
pyOpenSSL==0.13.1
pyalsa==1.0.26
pyasn1==0.1.7
pyasn1-modules==0.0.5
pycrypto==2.6.1
pycurl==7.19.3.1
pygobject==3.14.0
pygpgme==0.3
pyinotify==0.9.4
pykickstart==1.99.65
pyliblzma==0.5.3
pyparsing==2.0.3
pyparted==3.9.5
python-augeas==0.5.0
python-cson==1.0.9
python-dateutil==2.4.2
python-default-encoding==0.1
python-dmidecode==3.10.13
python-ldap==2.4.17
python-meh==0.32
python-nss==0.16.0
python-yubico==1.2.3
pytz==2015.4
pyusb==1.0.0b1
pywbem==0.7.0
pyxattr==0.5.3
pyxdg==0.25
qrcode==5.0.1
requests==2.5.3
rpm-python==4.12.0.1
scdate==1.10.7
seobject==0.1
sepolicy==1.1
setroubleshoot==1.1
six==1.9.0
slip==0.6.0
slip.dbus==0.6.0
snowballstemmer==1.2.0
sphinx-rtd-theme==0.1.8
urlgrabber==3.10.1
urllib3==1.10.2
wheel==0.24.0
wsgiref==0.1.2
yum-langpacks==0.4.5
yum-metadata-parser==1.1.4
